30604243515163706
30604243515163704
30604243515163526
30604243515163615
30604243515163437
30604243515341417
30604243515341415
30604243515163637
30604243515341416
30604243515341414
30604243515163636
30604243515341616
30604243515341614
30604243515341607
30604243515341605
30604243515341427
30604243515161737
30604243515161735
30604243515161736
30604243515161734
30604243515161716
30604243515161727
30604243515161725
30604243515343436
30604243515343434
30604243515343605
30604243515343427
30604243515343425
30604243515343424
30604243515343426
30604243515343627
30604243515343625
30604243515343607
30604243515343624
30604243515343606
30604243515342735
30604250626261624
30604250626260735
30604250626261606
30604250626260717
30604250626261604
30604250626260715
30604250626261615
30604250626261614
30604250626261437
30604250626261436
30604250626261435
30604250626261434
30604250626261527
30604250626261526
30604250626261525
30604250626261524
30604250626261507
30604250626261506
30604250626261535
30604250626261534
30604250626270406
30604250626261517
30604250626261516
30604250626261515
30604250626261514
30604250626270407
30604250626270405
30604250626270404
30604250626252626
30604243517172717
30604243517172735
30604243517172716
30604243517172737
30604243517172734
30604243517172707
30604243517172736
30604243517172725
30604243517173624
30604243517173626
30604243517351435
30604243517351437
30604243517351434
30604243517351436
30604243517351425
30604243517351427
30604250626253625
30604250626253624
30604250626253616
30604250626253607
30604250626253606
30604250626253605
30604250626253604
30604250626253716
30604250626253707
30604250626253714
30604250626253705
30604250626253704
30604250626253536
30604250626253527
30604252406242416
30604252406242407
30604252406242434
30604252406242425
30604252406242436
30604252406242424
30604252406242427
30604250626342704
30604250626342615
30604250626342527
30604250626342526
30604250626342437
30604250626342525
30604250626342524
30604250626342435
30604252406242437
30604252406242704
30604252406242615
30604252406242706
30604252406242617
30604252406242616
30604252406243626
30604252406242737
30604252406261404
30604252406260515
30604252406243636
30604252406261415
30604252406261414
30604252406261417
30604252406261405
30604252406261416
30604252406261407
30604252406270614
30604252406270605
30604252406270604
30604252406270607
30604252406270606
30604252406270625
30604252406270707
30604252406270734
30604252406270725
30604252406270736
30604252406270727
30604252406271736
30604252406271727
30604252406271726
30604252406273514
30604252406273505
30604252406273504
30604252406273507
30604252406271737
30604252406273515
30604252406273517
30604252406273516
30604252406362414
30604252406362405
30604252406362417
30604252406362416
30604252406362407
30604252406362434
30604252406362425
30604252406362505
30604252406362504
30604252406362507
30604252406362506
30604252406362525
30604252406362524
30604250627263516
30604250627263505
30604250627263514
30604250627261727
30604250627263515
30604250627261736
30604250627261737
30604252406363505
30604252406363514
30604252406363507
30604252406363516
30604252406363525
30604252406363534
30604252406363517
30604252406372406
30604252406363535
30604250627263537
30604250627272426
30604250627263535
30604250627272424
30604250627263517
30604250627272425
30604250627272406
30604250627272407
30604252406370726
30604252406372504
30604252406372505
30604252406372417
30604252406372506
30604252406372507
30604252406371624
30604252406371625
30604252406371626
30604252406371627
30604252406373404
30604252406373405
30604252406371634
30604252406371636
30604252406373414
30604252405051426
30604252405051424
30604252405051427
30604252405051406
30604252405051425
30604252405051407
30604252405051436
30604252405051434
30604252405053504
30604252405051726
30604252405053505
30604252405051724
30604252405051727
30604252405051725
30604252405053506
30604252405053525
30604252405053507
30604252405053534
30604252405053516
30604252405053514
30604252405160637
30604252405160635
30604252405160726
30604252405160724
30604252405160706
30604252405160727
30604252405160725
30604252405162506
30604252405162504
30604252405162507
30604252405162505
30604252405162514
30604252405162716
30604252405162714
30604252405162536
30604252405162717
30604252405162715
30604252405162537
30604252407073617
30604252407073635
30604252407073706
30604252407073637
30604252407073724
30604252407073726
30604252407073525
30604252407073704
30604252407073527
30604252407073705
30604252407073536
30604252407073714
30604252407140727
30604252407140734
30604252407140736
30604252407142514
30604252407140735
30604252407140737
30604252407142515
30604252407142505
30604252407142507
30604252407142516
30604252407142526
30604252407142704
30604252407142525
30604252407142527
30604252407142705
30604252407142536
30604252407142714
30604252407142706
30604252407142707
30604252407142725
30604252407142724
30604252407142726
30604252407142727


30604252424240024
30604252424240025
30604252424240026
30604252424240034
30604252424240035
30604252424240060
30604252424240061
30604252424240062
30604252424240064
30604252424240065
30604252424240066
30604252424240070
30604252424240071
30604252424240074
30604252424240075
30604252424240115
30604252424240116
30604252424240117
30604252424240124
30604252424240125
30604252424240134
30604252424240151
30604252424240152
30604252424240153
30604252424240155
30604252424240156
30604252424240157
30604252424240160
30604252424240161
30604252424240164
30604252424240165
30604252424240170
30604252424240174
30604252424240420
30604252424240421
30604252424240422
30604252424240430
30604252424240431
30604252424240511
30604252424240512
30604252424240513
30604252424240520
30604252424240521
30604252424240530
30604252424241004
30604252424241006
30604252424241007
30604252424241016
30604252424241017
30604252424241040
30604252424241042
30604252424241043
30604252424241044
30604252424241046
30604252424241047
30604252424241052
30604252424241053
30604252424241056
30604252424241057
30604252424241106
30604252424241107
30604252424241125
30604252424241134
30604252424241135
30604252424241142
30604252424241143
30604252424241146
30604252424241147
30604252424241161
30604252424241165
30604252424241170
30604252424241171
30604252424241174
30604252424241175
30604252424241400
30604252424241402
30604252424241403
30604252424241412
30604252424241413
30604252424241502
30604252424241503
30604252424241521
30604252424241530
30604252424241531
30604252424250024
30604252424250025
30604252424250034
30604252424250035
30604252424250060
30604252424250061
30604252424250064
30604252424250065
30604252424250070
30604252424250071
30604252424250074
30604252424250075
30604252424250124
30604252424250125
30604252424250126
30604252424250127
30604252424250134
30604252424250135
30604252424250136
30604252424250160
30604252424250161
30604252424250162
30604252424250163
30604252424250164
30604252424250166
30604252424250167
30604252424250170
30604252424250171
30604252424250172
30604252424250174
30604252424250175
30604252424250176
30604252424250420
30604252424250421
30604252424250430
30604252424250431
30604252424250520
30604252424250522
30604252424250523
30604252424250530
30604252424250531
30604252424250532
30604252424251024
30604252424251025
30604252424251034
30604252424251035
30604252424251060
30604252424251061
30604252424251064
30604252424251065
30604252424251070
30604252424251071
30604252424251074
30604252424251075
30604252424251116
30604252424251117
30604252424251124
30604252424251125
30604252424251134
30604252424251152
30604252424251153
30604252424251156
30604252424251157
30604252424251160
30604252424251161
30604252424251164
30604252424251165
30604252424251170
30604252424251174
30604252424251420
30604252424251421
30604252424251430
30604252424251431
30604252424251512
30604252424251513
30604252424251520
30604252424251521
30604252424251530
30604252424340005
30604252424340006
30604252424340007
30604252424340014
30604252424340015
30604252424340041
30604252424340042
30604252424340043
30604252424340045
30604252424340046
30604252424340047
30604252424340050
30604252424340051
30604252424340054
30604252424340055
30604252424340104
30604252424340105
30604252424340106
30604252424340107
30604252424340116
30604252424340117
30604252424340140
30604252424340141
30604252424340142
30604252424340143
30604252424340144
30604252424340146
30604252424340147
30604252424340152
30604252424340153
30604252424340156
30604252424340157
30604252424340401
30604252424340402
30604252424340403
30604252424340410
30604252424340411
30604252424340500
30604252424340502
30604252424340503
30604252424340512
30604252424340513
30604252424341006
30604252424341024
30604252424341025
30604252424341034
30604252424341035
30604252424341042
30604252424341046
30604252424341060
30604252424341061
30604252424341064
30604252424341065
30604252424341070
30604252424341071
30604252424341074
30604252424341075
30604252424341124
30604252424341125
30604252424341134
30604252424341136
30604252424341137
30604252424341160
30604252424341161
30604252424341164
30604252424341165
30604252424341170
30604252424341172
30604252424341173
30604252424341176
30604252424341177
30604252424341402
30604252424341420
30604252424341421
30604252424341430
30604252424341431
30604252424341520
30604252424341521
30604252424341532
30604252424341533
30604252424350026
30604252424350027
30604252424350034
30604252424350035
30604252424350036
30604252424350037
30604252424350062
30604252424350063
30604252424350066
30604252424350067
30604252424350070
30604252424350071
30604252424350072
30604252424350073
30604252424350075
30604252424350076
30604252424350077
30604252424350124
30604252424350125
30604252424350160
30604252424350161
30604252424350164
30604252424350165
30604252424350422
30604252424350423
30604252424350431
30604252424350432
30604252424350433
30604252424350520
30604252424350521
30604252424351106
30604252424351142
30604252424351146
30604252424351502
30604252425072137
30604252425072173
30604252425072177
30604252425072217
30604252425072225
30604252425072226
30604252425072234
30604252425072252
30604252425072253
30604252425072256
30604252425072257
30604252425072261
30604252425072262
30604252425072263
30604252425072265
30604252425072266
30604252425072267
30604252425072270
30604252425072274
30604252425072304
30604252425072305
30604252425072306
30604252425072314
30604252425072315
30604252425072340
30604252425072341
30604252425072342
30604252425072344
30604252425072345
30604252425072346
30604252425072350
30604252425072351
30604252425072354
30604252425072355
30604252425072533
30604252425072612
30604252425072613
30604252425072621
30604252425072622
30604252425072623
30604252425072630
30604252425072700
30604252425072701
30604252425072702
30604252425072710
30604252425072711
30604252425073026
30604252425073027
30604252425073036
30604252425073062
30604252425073063
30604252425073066
30604252425073067
30604252425073072
30604252425073076
30604252425073214
30604252425073215
30604252425073250
30604252425073251
30604252425073254
30604252425073255
30604252425073304
30604252425073307
30604252425073325
30604252425073327
30604252425073336
30604252425073340
30604252425073343
30604252425073344
30604252425073347
30604252425073361
30604252425073363
30604252425073365
30604252425073367
30604252425073372
30604252425073376
30604252425073422
30604252425073423
30604252425073432
30604252425073610
30604252425073611
30604252425073700
30604252425073703
30604252425073721
30604252425073723
30604252425073732
30604252425241115
30604252425241134
30604252425241135
30604252425241151
30604252425241153
30604252425241155
30604252425241157
30604252425241170
30604252425241171
30604252425241174
30604252425241175
30604252425241511
30604252425241513
30604252425241530
30604252425241531
30604252425250004
30604252425250040
30604252425250044
30604252425250400
30604252425251114
30604252425251115
30604252425251117
30604252425251150
30604252425251151
30604252425251153
30604252425251154
30604252425251155
30604252425251157
30604252425251510
30604252425251511
30604252425251513
30604252425340006
30604252425340024
30604252425340042
30604252425340046
30604252425340060
30604252425340064
30604252425340125
30604252425340161
30604252425340165
30604252425340402
30604252425340420
30604252425340521
